{
  "hits": [
    {
      "name": "AnyDesk",
      "keywords": null,
      "summary": "Connect to a computer remotely",
      "description": "AnyDesk ensures secure and reliable remote desktop connections for IT professionals and on-the-go individuals alike.NOTE: This wrapper is not verified by, affiliated with, or supported by AnyDesk.",
      "id": "com_anydesk_Anydesk",
      "type": "desktop-application",
      "project_license": "LicenseRef-proprietary",
      "is_free_license": false,
      "app_id": "com.anydesk.Anydesk",
      "icon": "https://dl.flathub.org/media/icons/128x128/com.anydesk.Anydesk.png",
      "main_categories": "network",
      "sub_categories": [],
      "developer_name": "AnyDesk Software GmbH",
      "verification_verified": false,
      "verification_method": "none",
      "verification_login_name": null,
      "verification_login_provider": null,
      "verification_login_is_organization": null,
      "verification_website": null,
      "verification_timestamp": null,
      "runtime": "org.freedesktop.Platform/x86_64/20.08",
      "updated_at": 1610973790,
      "arches": ["x86_64"],
      "added_at": 1610973790,
      "trending": 13.650000000000034,
      "installs_last_month": 653,
      "favorites_count": null,
      "isMobileFriendly": false
    }
  ],
  "query": "",
  "processingTimeMs": 123,
  "hitsPerPage": 1,
  "page": 1,
  "totalPages": 3,
  "totalHits": 3,
  "facetDistribution": null,
  "facetStats": null
}
