{
  "hits": [
    {
      "name": "AnyDesk",
      "keywords": null,
      "summary": "Con\u00e9ctese a un ordenador de forma remota",
      "description": "Gracias a AnyDesk, contar\u00e1 con conexiones seguras y fiables de escritorio remoto para profesionales inform\u00e1ticos y usuarios en movimiento.",
      "id": "com_anydesk_Anydesk",
      "type": "desktop-application",
      "project_license": "LicenseRef-proprietary",
      "is_free_license": false,
      "app_id": "com.anydesk.Anydesk",
      "icon": "https://dl.flathub.org/repo/appstream/x86_64/icons/128x128/com.anydesk.Anydesk.png",
      "categories": ["Network"],
      "main_categories": ["Network"],
      "sub_categories": [],
      "developer_name": "AnyDesk Software GmbH",
      "verification_verified": false,
      "verification_method": null,
      "verification_login_name": null,
      "verification_login_provider": null,
      "verification_login_is_organization": null,
      "verification_website": null,
      "verification_timestamp": null,
      "runtime": "org.freedesktop.Platform/x86_64/20.08",
      "updated_at": 1610973790,
      "arches": ["x86_64"],
      "added_at": 1610973790,
      "trending": 13.650000000000034,
      "installs_last_month": 886,
      "isMobileFriendly": false
    }
  ],
  "query": "",
  "processingTimeMs": 123,
  "hitsPerPage": 1,
  "page": 1,
  "totalPages": 3,
  "totalHits": 3
}
